<svg width="72" height="72" viewBox="0 0 72 72" fill="none" xmlns="http://www.w3.org/2000/svg">
<path id="Star" d="M43.2266 20.076L59.1021 12.7596L51.7858 28.6353L51.3332 29.6175L52.3478 29.992L68.7469 36.0443L52.3478 42.0967L51.3332 42.4712L51.7858 43.4534L59.1021 59.3291L43.2266 52.0127L42.2443 51.56L41.8699 52.5747L35.8176 68.9739L29.7653 52.5747L29.3908 51.56L28.4086 52.0127L12.533 59.3291L19.8493 43.4534L20.302 42.4712L19.2873 42.0967L2.88819 36.0443L19.2873 29.992L20.302 29.6175L19.8493 28.6353L12.533 12.7596L28.4086 20.076L29.3908 20.5286L29.7653 19.514L35.8176 3.11478L41.8699 19.514L42.2443 20.5286L43.2266 20.076Z" fill="white" stroke="#020202" stroke-width="2"/>
</svg>
