<svg width="25" height="25" viewBox="0 0 25 25" fill="none" xmlns="http://www.w3.org/2000/svg">
<g id="Icons" clip-path="url(#clip0_31_183)">
<path id="Vector" d="M12.5 17.4966L18.68 21.2266L17.04 14.1966L22.5 9.46656L15.31 8.85656L12.5 2.22656L9.69 8.85656L2.5 9.46656L7.96 14.1966L6.32 21.2266L12.5 17.4966Z" fill="#111111"/>
</g>
<defs>
<clipPath id="clip0_31_183">
<rect width="24" height="24" fill="white" transform="translate(0.5 0.226562)"/>
</clipPath>
</defs>
</svg>
